<!-- Generated by IcoMoon.io -->
<svg version="1.1" xmlns="http://www.w3.org/2000/svg" width="672" height="1024" viewBox="0 0 672 1024">
<title></title>
<g id="icomoon-ignore">
</g>
<path d="M613.59 24.674h-178.891c0 0-265.253-24.674-265.253 222.072 0 55.518 0 166.554 0 166.554h-166.554v166.554h166.554v444.146h222.072v-444.146h166.554l111.036-166.554h-277.592v-111.036c0 0 0-111.036 111.036-111.036h111.036v-166.554z"></path>
</svg>
