<!-- Generated by IcoMoon.io -->
<svg version="1.1" xmlns="http://www.w3.org/2000/svg" width="992" height="768" viewBox="0 0 992 768">
<g id="icomoon-ignore">
</g>
<path d="M2.285 109.715v-109.715h987.428v109.715h-987.428z"></path>
<path d="M2.285 438.857v-109.714h987.428v109.714h-987.428z"></path>
<path d="M2.285 768v-109.715h987.428v109.715h-987.428z"></path>
</svg>
